{"success":true,"data":[{"donor_id":142,"surname":"Noca","first_name":"Noelyn","middle_name":"Tanaleon","donor_type":"New","donor_number":"PRC-2025-15122","registration_source":"Mobile","registration_channel":"Mobile","status_text":"Pending (Collection)","status":"pending_collection","status_class":"bg-primary","birthdate":"2004-10-25","sex":"Female","age":21,"date_submitted":"Aug 24, 2025","eligibility_id":"pending_142","sort_ts":1756061678},{"donor_id":144,"surname":"Noca","first_name":"Jaz","middle_name":"Escrupolo","donor_type":"New","donor_number":"PRC-2025-78221","registration_source":"Mobile","registration_channel":"Mobile","status_text":"Pending (Collection)","status":"pending_collection","status_class":"bg-primary","birthdate":"2004-03-28","sex":"Male","age":21,"date_submitted":"Aug 25, 2025","eligibility_id":"pending_144","sort_ts":1756086910},{"donor_id":145,"surname":"Marquez","first_name":"Marco","middle_name":"Romualdez","donor_type":"Returning","donor_number":"PRC-2025-51608","registration_source":"PRC Portal","registration_channel":"PRC Portal","status_text":"Pending (Collection)","status":"pending_collection","status_class":"bg-primary","birthdate":"1999-02-05","sex":"Male","age":26,"date_submitted":"Aug 25, 2025","eligibility_id":"pending_145","sort_ts":1756115742},{"donor_id":146,"surname":"Sorrongon","first_name":"Daffle","middle_name":"Dale","donor_type":"Returning","donor_number":"PRC-2025-70804","registration_source":"PRC Portal","registration_channel":"PRC Portal","status_text":"Pending (Collection)","status":"pending_collection","status_class":"bg-primary","birthdate":"2005-07-03","sex":"Female","age":20,"date_submitted":"Aug 25, 2025","eligibility_id":"pending_146","sort_ts":1756142840},{"donor_id":1905,"surname":"Navarro","first_name":"Jose","middle_name":"A.","donor_type":"Returning","donor_number":"PRC001905","registration_source":"PRC Portal","registration_channel":"PRC Portal","status_text":"Pending (Screening)","status":"pending_screening","status_class":"bg-warning","birthdate":"1993-12-01","sex":"Male","age":31,"date_submitted":"Aug 27, 2025","eligibility_id":"pending_1905","sort_ts":1756270637},{"donor_id":2558,"surname":"Benitez","first_name":"Ramon","middle_name":"S.","donor_type":"Returning","donor_number":"PRC002558","registration_source":"PRC Portal","registration_channel":"PRC Portal","status_text":"Pending (Screening)","status":"pending_screening","status_class":"bg-warning","birthdate":"1989-06-11","sex":"Male","age":36,"date_submitted":"Aug 28, 2025","eligibility_id":"pending_2558","sort_ts":1756348101},{"donor_id":147,"surname":"Margarito","first_name":"Pacquiao","middle_name":"Hernandez","donor_type":"Returning","donor_number":"PRC-2025-19998","registration_source":"PRC Portal","registration_channel":"PRC Portal","status_text":"Pending (Collection)","status":"pending_collection","status_class":"bg-primary","birthdate":"2000-07-25","sex":"Male","age":25,"date_submitted":"Aug 28, 2025","eligibility_id":"pending_147","sort_ts":1756381769},{"donor_id":499,"surname":"Reyes","first_name":"Michael","middle_name":"","donor_type":"Returning","donor_number":"PRC000499","registration_source":"PRC Portal","registration_channel":"PRC Portal","status_text":"Pending (Collection)","status":"pending_collection","status_class":"bg-primary","birthdate":"1990-10-10","sex":"Male","age":35,"date_submitted":"Aug 29, 2025","eligibility_id":"pending_499","sort_ts":1756430922},{"donor_id":1277,"surname":"Reyes","first_name":"John","middle_name":"","donor_type":"Returning","donor_number":"PRC001277","registration_source":"PRC Portal","registration_channel":"PRC Portal","status_text":"Pending (Collection)","status":"pending_collection","status_class":"bg-primary","birthdate":"2000-07-03","sex":"Male","age":25,"date_submitted":"Aug 29, 2025","eligibility_id":"pending_1277","sort_ts":1756435116},{"donor_id":1177,"surname":"Navarro","first_name":"Rey","middle_name":"A.","donor_type":"Returning","donor_number":"PRC001177","registration_source":"PRC Portal","registration_channel":"PRC Portal","status_text":"Pending (Collection)","status":"pending_collection","status_class":"bg-primary","birthdate":"1998-08-17","sex":"Male","age":27,"date_submitted":"Aug 29, 2025","eligibility_id":"pending_1177","sort_ts":1756474681}],"pagination":{"currentPage":1,"totalPages":2,"totalItems":20,"itemsPerPage":10},"status":"pending","timestamp":1761499153}